…
Comparison: An unauthorized user can see and analyse the annotations, even without access to the underlying text
:::

```{#lst-amcat4r .r lst-cap="Querying the new field through the API"}
if (!requireNamespace("amcat4r", quietly = TRUE))
  remotes::install_github("ccs-amsterdam/amcat4r")
library(amcat4r)
amcat_login("http://localhost/amcat")
sotu_dfm <- query_documents(index = "state_of_the_union",
                            queries = NULL, fields = c(".id", "dfm"))
sotu_dfm


    # A tibble: 232 × 2
       .id      dfm
       <id_col> <list>
     1 9d8…0d0  <list [3,370]>
     2 846…068  <list [2,176]>
     3 2b6…aa5  <list [2,895]>
     4 4f3…8bf  <list [3,172]>
     5 c36…4b0  <list [3,739]>
     6 5a2…8ba  <list [3,745]>
     7 8b0…5f2  <list [3,927]>
     8 484…893  <list [3,308]>
     9 a3a…a70  <list [2,554]>
    10 57c…840  <list [1,729]>
    # i 222 more rows
```
…
